Milestone 4/transcript
couldn't open "transcript": permission denied
# Reading pref.tcl
# //  Questa Sim-64
# //  Version 2023.3 win64 Jul 17 2023
# //
# //  Copyright 1991-2023 Mentor Graphics Corporation
# //  All Rights Reserved.
# //
# //  QuestaSim and its associated documentation contain trade
# //  secrets and commercial or financial information that are the property of
# //  Mentor Graphics Corporation and are privileged, confidential,
# //  and exempt from disclosure under the Freedom of Information Act,
# //  5 U.S.C. Section 552. Furthermore, this information
# //  is prohibited from disclosure under the Trade Secrets Act,
# //  18 U.S.C. Section 1905.
# //
cd {\\thoth.cecs.pdx.edu\Home06\suhaila\Desktop\m4}
do run.do
# ** Warning: (vlib-34) Library already exists at "work".
# Errors: 0, Warnings: 1
# QuestaSim-64 vlog 2023.3 Compiler 2023.07 Jul 17 2023
# Start time: 22:13:48 on May 29,2024
# vlog -reportprogress 300 FIFO_Package.sv async_fifo.sv testbench.sv async_basetest.sv async_driver.sv async_env.sv async_interface.sv async_read_agent.sv async_scoreboard.sv async_seq_item.sv async_sequence_basetest.sv async_sequencer.sv async_write_agent.sv async_write_agent.sv read_monitor.sv write_monitor.sv 
# -- Compiling package fifo_pkg
# -- Importing package mtiUvm.uvm_pkg (uvm-1.1d Built-in)
# ** Note: (vlog-2286) async_seq_item.sv(2): Using implicit +incdir+C:/questasim64_2023.3/uvm-1.1d/../verilog_src/uvm-1.1d/src from import uvm_pkg
# -- Compiling module sync_r2w
# -- Compiling module sync_w2r
# -- Compiling module FIFO_memory
# -- Compiling module rptr_empty
# -- Compiling module wptr_full
# -- Compiling module Async_FIFO
# -- Compiling package testbench_sv_unit
# -- Importing package fifo_pkg
# -- Compiling interface intf
# -- Compiling module tb_top
# -- Compiling package async_basetest_sv_unit
# -- Compiling package async_driver_sv_unit
# -- Compiling package async_env_sv_unit
# -- Compiling interface intf
# ** Warning: async_interface.sv(1): (vlog-2275) Existing interface 'intf' at line 1 will be overwritten.
# -- Compiling package async_read_agent_sv_unit
# -- Compiling package async_scoreboard_sv_unit
# -- Compiling package async_seq_item_sv_unit
# -- Compiling package async_sequence_basetest_sv_unit
# -- Compiling package async_sequencer_sv_unit
# -- Compiling package async_write_agent_sv_unit
# -- Compiling package async_write_agent_sv_unit
# ** Warning: async_write_agent.sv(1): (vlog-2275) Existing package 'async_write_agent_sv_unit' at line 1 will be overwritten.
# -- Compiling package async_write_agent_sv_unit
# -- Compiling package read_monitor_sv_unit
# -- Compiling package write_monitor_sv_unit
# 
# Top level modules:
# 	tb_top
# End time: 22:13:49 on May 29,2024, Elapsed time: 0:00:01
# Errors: 0, Warnings: 2
# vsim -coverage -vopt work.tb_top -c -do "coverage save -onexit -directive -codeAll basetest.ucdb; run -all" 
# Start time: 22:13:49 on May 29,2024
# ** Note: (vsim-8009) Loading existing optimized design _opt
# Loading sv_std.std
# Loading work.intf(fast)
# Loading mtiUvm.uvm_pkg(fast)
# Loading work.fifo_pkg(fast)
# Loading work.testbench_sv_unit(fast)
# Loading mtiUvm.questa_uvm_pkg(fast)
# Loading work.tb_top(fast)
# Loading C:/questasim64_2023.3/uvm-1.1d\win64\uvm_dpi.dll
# ** Warning: (vsim-8634) Code was not compiled with coverage options.
# coverage save -onexit -directive -codeAll basetest.ucdb
#  run -all
# ----------------------------------------------------------------
# UVM-1.1d
# (C) 2007-2013 Mentor Graphics Corporation
# (C) 2007-2013 Cadence Design Systems, Inc.
# (C) 2006-2013 Synopsys, Inc.
# (C) 2011-2013 Cypress Semiconductor Corp.
# ----------------------------------------------------------------
# 
#   ***********       IMPORTANT RELEASE NOTES         ************
# 
#   You are using a version of the UVM library that has been compiled
#   with `UVM_NO_DEPRECATED undefined.
#   See http://www.eda.org/svdb/view.php?id=3313 for more details.
# 
#   You are using a version of the UVM library that has been compiled
#   with `UVM_OBJECT_MUST_HAVE_CONSTRUCTOR undefined.
#   See http://www.eda.org/svdb/view.php?id=3770 for more details.
# 
#       (Specify +UVM_NO_RELNOTES to turn off this notice)
# 
# UVM_INFO verilog_src/questa_uvm_pkg-1.2/src/questa_uvm_pkg.sv(277) @ 0: reporter [Questa UVM] QUESTA_UVM-1.2.3
# UVM_INFO verilog_src/questa_uvm_pkg-1.2/src/questa_uvm_pkg.sv(278) @ 0: reporter [Questa UVM]  questa_uvm::init(+struct)
# UVM_INFO testbench.sv(30) @ 0: reporter [tb_top] uvm_config_db set for uvm_tb_top
# UVM_INFO @ 0: reporter [RNTST] Running test fifo_base_test...
# UVM_INFO async_write_agent.sv(14) @ 0: uvm_test_top.env.wa [WRITE_AGENT] Inside constructor
# UVM_INFO async_read_agent.sv(16) @ 0: uvm_test_top.env.ra [READ_AGENT] Inside constructor
# UVM_INFO async_sequencer.sv(32) @ 0: uvm_test_top.env.ra.rs [READ_SEQUENCER] Inside constructor
# UVM_INFO async_driver.sv(65) @ 0: uvm_test_top.env.ra.rd [READ_DRIVER] Inside constructor
# UVM_INFO read_monitor.sv(19) @ 0: uvm_test_top.env.ra.rm [READ_MONITOR] Inside constructor
# UVM_INFO async_driver.sv(70) @ 0: uvm_test_top.env.ra.rd [READ_DRIVER_CLASS] Build Phase
# UVM_INFO async_sequencer.sv(37) @ 0: uvm_test_top.env.ra.rs [READ_SEQUENCER] Build Phase
# UVM_INFO async_sequencer.sv(11) @ 0: uvm_test_top.env.wa.ws [WRITE_SEQUENCER] Inside constructor
# UVM_INFO async_driver.sv(14) @ 0: uvm_test_top.env.wa.wd [WRITE_DRIVER] Inside constructor
# UVM_INFO write_monitor.sv(18) @ 0: uvm_test_top.env.wa.wm [WRITE_MONITOR_CLASS] Inside constructor
# UVM_INFO async_driver.sv(19) @ 0: uvm_test_top.env.wa.wd [WRITE_DRIVER] Build Phase
# UVM_INFO async_sequencer.sv(16) @ 0: uvm_test_top.env.wa.ws [WRITE_SEQUENCER] Build Phase
# UVM_INFO async_driver.sv(77) @ 0: uvm_test_top.env.ra.rd [READ_DRIVER] Connect Phase
# UVM_INFO async_sequencer.sv(42) @ 0: uvm_test_top.env.ra.rs [READ_SEQUENCER] Connect Phase
# UVM_INFO async_driver.sv(26) @ 0: uvm_test_top.env.wa.wd [WRITE_DRIVER] Connect Phase
# UVM_INFO async_sequencer.sv(21) @ 0: uvm_test_top.env.wa.ws [WRITE_SEQUENCER] Connect Phase
# UVM_INFO @ 0: reporter [UVMTOP] UVM testbench topology:
# ---------------------------------------------------------------
# Name                       Type                     Size  Value
# ---------------------------------------------------------------
# uvm_test_top               fifo_base_test           -     @471 
#   env                      fifo_env                 -     @478 
#     ra                     read_agent               -     @493 
#       rd                   read_driver              -     @618 
#         rsp_port           uvm_analysis_port        -     @633 
#         seq_item_port      uvm_seq_item_pull_port   -     @625 
#       rm                   read_monitor             -     @641 
#         port_read          uvm_analysis_port        -     @649 
#       rs                   read_sequencer           -     @509 
#         rsp_export         uvm_analysis_export      -     @516 
#         seq_item_export    uvm_seq_item_pull_imp    -     @610 
#         arbitration_queue  array                    0     -    
#         lock_queue         array                    0     -    
#         num_last_reqs      integral                 32    'd1  
#         num_last_rsps      integral                 32    'd1  
#     scb                    fifo_scoreboard          -     @500 
#       read_port            uvm_analysis_imp_port_b  -     @671 
#       write_port           uvm_analysis_imp_port_a  -     @663 
#     wa                     write_agent              -     @486 
#       wd                   write_driver             -     @789 
#         rsp_port           uvm_analysis_port        -     @804 
#         seq_item_port      uvm_seq_item_pull_port   -     @796 
#       wm                   write_monitor            -     @812 
#         port_write         uvm_analysis_port        -     @820 
#       ws                   write_sequencer          -     @680 
#         rsp_export         uvm_analysis_export      -     @687 
#         seq_item_export    uvm_seq_item_pull_imp    -     @781 
#         arbitration_queue  array                    0     -    
#         lock_queue         array                    0     -    
#         num_last_reqs      integral                 32    'd1  
#         num_last_rsps      integral                 32    'd1  
# ---------------------------------------------------------------
# 
# /t Starting sequence w_seq run_phase
# UVM_INFO async_sequence_basetest.sv(14) @ 0: reporter@@write_sequence [WRITE_SEQUENCE] Inside constructor
# /t Starting sequence r_seq run_phase
# UVM_INFO async_sequence_basetest.sv(38) @ 0: reporter@@read_sequence [READ_SEQUENCE] Inside constructor
# UVM_INFO async_driver.sv(37) @ 0: uvm_test_top.env.wa.wd [DRIVER_CLASS] Inside Run Phase
# UVM_INFO async_driver.sv(87) @ 0: uvm_test_top.env.ra.rd [DRIVER_CLASS] Inside Run Phase
# UVM_INFO async_sequence_basetest.sv(18) @ 0: reporter@@write_sequence [WRITE_SEQUENCE] Inside body task
# UVM_INFO async_sequence_basetest.sv(42) @ 0: reporter@@read_sequence [READ_SEQUENCE] Inside body task
# 	 Monitor winc = 1 	 wdata = a6 	 w_count=1
# 	 Scoreboard wrie data = a6
# 	 Monitor winc = 1 	 wdata = 4 	 w_count=2
# 	 Scoreboard wrie data = 4
# 	 Monitor winc = 1 	 wdata = 9 	 w_count=3
# 	 Scoreboard wrie data = 9
# 	 Monitor winc = 1 	 wdata = bf 	 w_count=4
# 	 Scoreboard wrie data = bf
# 	 Monitor winc = 1 	 wdata = dd 	 w_count=5
# 	 Scoreboard wrie data = dd
# 	 Monitor winc = 1 	 wdata = eb 	 w_count=6
# 	 Scoreboard wrie data = eb
# 	 Monitor winc = 1 	 wdata = 4a 	 w_count=7
# 	 Scoreboard wrie data = 4a
# 	 Monitor winc = 1 	 wdata = c5 	 w_count=8
# 	 Scoreboard wrie data = c5
# 	 Monitor winc = 1 	 wdata = 14 	 w_count=9
# 	 Scoreboard wrie data = 14
# 	 Monitor winc = 1 	 wdata = e0 	 w_count=10
# 	 Scoreboard wrie data = e0
# 	 Monitor winc = 1 	 wdata = af 	 w_count=11
# 	 Scoreboard wrie data = af
# 	 Monitor winc = 1 	 wdata = b4 	 w_count=12
# 	 Scoreboard wrie data = b4
# 	 Monitor winc = 1 	 wdata = 41 	 w_count=13
# 	 Scoreboard wrie data = 41
# 	 Monitor winc = 1 	 wdata = b7 	 w_count=14
# 	 Scoreboard wrie data = b7
# 	 Monitor winc = 1 	 wdata = b2 	 w_count=15
# 	 Scoreboard wrie data = b2
# 	 Monitor winc = 1 	 wdata = 13 	 w_count=16
# 	 Scoreboard wrie data = 13
# 	 Monitor winc = 1 	 wdata = 32 	 w_count=17
# 	 Scoreboard wrie data = 32
# 	 Monitor winc = 1 	 wdata = 11 	 w_count=18
# 	 Scoreboard wrie data = 11
# 	 Monitor winc = 1 	 wdata = 64 	 w_count=19
# 	 Scoreboard wrie data = 64
# 	 Monitor rinc = 1 	 rdata = a6 	 	 rcount=1
# UVM_INFO async_scoreboard.sv(47) @ 240: uvm_test_top.env.scb [SCOREBOARD] MATCH FOUND Expected Data: a6 ACTUAL Read Data: a6
# 	 Monitor winc = 1 	 wdata = f0 	 w_count=20
# 	 Scoreboard wrie data = f0
# 	 Monitor winc = 1 	 wdata = d4 	 w_count=21
# 	 Scoreboard wrie data = d4
# 	 Monitor winc = 1 	 wdata = ce 	 w_count=22
# 	 Scoreboard wrie data = ce
# 	 Monitor rinc = 1 	 rdata = 4 	 	 rcount=2
# UVM_INFO async_scoreboard.sv(47) @ 260: uvm_test_top.env.scb [SCOREBOARD] MATCH FOUND Expected Data: 4 ACTUAL Read Data: 4
# 	 Monitor winc = 1 	 wdata = c6 	 w_count=23
# 	 Scoreboard wrie data = c6
# 	 Monitor winc = 1 	 wdata = a5 	 w_count=24
# 	 Scoreboard wrie data = a5
# 	 Monitor rinc = 1 	 rdata = 9 	 	 rcount=3
# UVM_INFO async_scoreboard.sv(47) @ 280: uvm_test_top.env.scb [SCOREBOARD] MATCH FOUND Expected Data: 9 ACTUAL Read Data: 9
# 	 Monitor winc = 1 	 wdata = 2 	 w_count=25
# 	 Scoreboard wrie data = 2
# 	 Monitor winc = 1 	 wdata = a6 	 w_count=26
# 	 Scoreboard wrie data = a6
# 	 Monitor winc = 1 	 wdata = b4 	 w_count=27
# 	 Scoreboard wrie data = b4
# 	 Monitor rinc = 1 	 rdata = bf 	 	 rcount=4
# UVM_INFO async_scoreboard.sv(47) @ 300: uvm_test_top.env.scb [SCOREBOARD] MATCH FOUND Expected Data: bf ACTUAL Read Data: bf
# 	 Monitor winc = 1 	 wdata = c2 	 w_count=28
# 	 Scoreboard wrie data = c2
# 	 Monitor winc = 1 	 wdata = a 	 w_count=29
# 	 Scoreboard wrie data = a
# 	 Monitor rinc = 1 	 rdata = dd 	 	 rcount=5
# UVM_INFO async_scoreboard.sv(47) @ 320: uvm_test_top.env.scb [SCOREBOARD] MATCH FOUND Expected Data: dd ACTUAL Read Data: dd
# 	 Monitor winc = 1 	 wdata = b0 	 w_count=30
# 	 Scoreboard wrie data = b0
# 	 Monitor winc = 1 	 wdata = e3 	 w_count=31
# 	 Scoreboard wrie data = e3
# 	 Monitor winc = 1 	 wdata = 1b 	 w_count=32
# 	 Scoreboard wrie data = 1b
# 	 Monitor rinc = 1 	 rdata = eb 	 	 rcount=6
# UVM_INFO async_scoreboard.sv(47) @ 340: uvm_test_top.env.scb [SCOREBOARD] MATCH FOUND Expected Data: eb ACTUAL Read Data: eb
# 	 Monitor winc = 1 	 wdata = bc 	 w_count=33
# 	 Scoreboard wrie data = bc
# 	 Monitor winc = 1 	 wdata = c3 	 w_count=34
# 	 Scoreboard wrie data = c3
# 	 Monitor rinc = 1 	 rdata = 4a 	 	 rcount=7
# UVM_INFO async_scoreboard.sv(47) @ 360: uvm_test_top.env.scb [SCOREBOARD] MATCH FOUND Expected Data: 4a ACTUAL Read Data: 4a
# 	 Monitor winc = 1 	 wdata = 58 	 w_count=35
# 	 Scoreboard wrie data = 58
# 	 Monitor winc = 1 	 wdata = b9 	 w_count=36
# 	 Scoreboard wrie data = b9
# 	 Monitor winc = 1 	 wdata = ad 	 w_count=37
# 	 Scoreboard wrie data = ad
# 	 Monitor rinc = 1 	 rdata = c5 	 	 rcount=8
# UVM_INFO async_scoreboard.sv(47) @ 380: uvm_test_top.env.scb [SCOREBOARD] MATCH FOUND Expected Data: c5 ACTUAL Read Data: c5
# 	 Monitor winc = 1 	 wdata = 61 	 w_count=38
# 	 Scoreboard wrie data = 61
# 	 Monitor winc = 1 	 wdata = 81 	 w_count=39
# 	 Scoreboard wrie data = 81
# 	 Monitor rinc = 1 	 rdata = 14 	 	 rcount=9
# UVM_INFO async_scoreboard.sv(47) @ 400: uvm_test_top.env.scb [SCOREBOARD] MATCH FOUND Expected Data: 14 ACTUAL Read Data: 14
# 	 Monitor winc = 1 	 wdata = b4 	 w_count=40
# 	 Scoreboard wrie data = b4
# 	 Monitor winc = 1 	 wdata = 5 	 w_count=41
# 	 Scoreboard wrie data = 5
# 	 Monitor winc = 1 	 wdata = 8c 	 w_count=42
# 	 Scoreboard wrie data = 8c
# 	 Monitor rinc = 1 	 rdata = e0 	 	 rcount=10
# UVM_INFO async_scoreboard.sv(47) @ 420: uvm_test_top.env.scb [SCOREBOARD] MATCH FOUND Expected Data: e0 ACTUAL Read Data: e0
# 	 Monitor winc = 1 	 wdata = 29 	 w_count=43
# 	 Scoreboard wrie data = 29
# 	 Monitor winc = 1 	 wdata = d6 	 w_count=44
# 	 Scoreboard wrie data = d6
# 	 Monitor rinc = 1 	 rdata = af 	 	 rcount=11
# UVM_INFO async_scoreboard.sv(47) @ 440: uvm_test_top.env.scb [SCOREBOARD] MATCH FOUND Expected Data: af ACTUAL Read Data: af
# 	 Monitor winc = 1 	 wdata = 2d 	 w_count=45
# 	 Scoreboard wrie data = 2d
# 	 Monitor winc = 1 	 wdata = df 	 w_count=46
# 	 Scoreboard wrie data = df
# 	 Monitor winc = 1 	 wdata = ab 	 w_count=47
# 	 Scoreboard wrie data = ab
# 	 Monitor rinc = 1 	 rdata = b4 	 	 rcount=12
# UVM_INFO async_scoreboard.sv(47) @ 460: uvm_test_top.env.scb [SCOREBOARD] MATCH FOUND Expected Data: b4 ACTUAL Read Data: b4
# 	 Monitor winc = 1 	 wdata = 54 	 w_count=48
# 	 Scoreboard wrie data = 54
# 	 Monitor winc = 1 	 wdata = 55 	 w_count=49
# 	 Scoreboard wrie data = 55
# 	 Monitor rinc = 1 	 rdata = 41 	 	 rcount=13
# UVM_INFO async_scoreboard.sv(47) @ 480: uvm_test_top.env.scb [SCOREBOARD] MATCH FOUND Expected Data: 41 ACTUAL Read Data: 41
# 	 Monitor winc = 1 	 wdata = 32 	 w_count=50
# 	 Scoreboard wrie data = 32
# 	 Monitor winc = 1 	 wdata = b2 	 w_count=51
# 	 Scoreboard wrie data = b2
# 	 Monitor winc = 1 	 wdata = 8d 	 w_count=52
# 	 Scoreboard wrie data = 8d
# 	 Monitor rinc = 1 	 rdata = b7 	 	 rcount=14
# UVM_INFO async_scoreboard.sv(47) @ 500: uvm_test_top.env.scb [SCOREBOARD] MATCH FOUND Expected Data: b7 ACTUAL Read Data: b7
# 	 Monitor winc = 1 	 wdata = d6 	 w_count=53
# 	 Scoreboard wrie data = d6
# 	 Monitor winc = 1 	 wdata = 59 	 w_count=54
# 	 Scoreboard wrie data = 59
# 	 Monitor rinc = 1 	 rdata = b2 	 	 rcount=15
# UVM_INFO async_scoreboard.sv(47) @ 520: uvm_test_top.env.scb [SCOREBOARD] MATCH FOUND Expected Data: b2 ACTUAL Read Data: b2
# 	 Monitor winc = 1 	 wdata = 49 	 w_count=55
# 	 Scoreboard wrie data = 49
# 	 Monitor winc = 1 	 wdata = ba 	 w_count=56
# 	 Scoreboard wrie data = ba
# 	 Monitor winc = 1 	 wdata = 17 	 w_count=57
# 	 Scoreboard wrie data = 17
# 	 Monitor rinc = 1 	 rdata = 13 	 	 rcount=16
# UVM_INFO async_scoreboard.sv(47) @ 540: uvm_test_top.env.scb [SCOREBOARD] MATCH FOUND Expected Data: 13 ACTUAL Read Data: 13
# 	 Monitor winc = 1 	 wdata = 1e 	 w_count=58
# 	 Scoreboard wrie data = 1e
# 	 Monitor winc = 1 	 wdata = 46 	 w_count=59
# 	 Scoreboard wrie data = 46
# 	 Monitor rinc = 1 	 rdata = 32 	 	 rcount=17
# UVM_INFO async_scoreboard.sv(47) @ 560: uvm_test_top.env.scb [SCOREBOARD] MATCH FOUND Expected Data: 32 ACTUAL Read Data: 32
# 	 Monitor winc = 1 	 wdata = 97 	 w_count=60
# 	 Scoreboard wrie data = 97
# 	 Monitor winc = 1 	 wdata = 60 	 w_count=61
# 	 Scoreboard wrie data = 60
# 	 Monitor winc = 1 	 wdata = e8 	 w_count=62
# 	 Scoreboard wrie data = e8
# 	 Monitor rinc = 1 	 rdata = 11 	 	 rcount=18
# UVM_INFO async_scoreboard.sv(47) @ 580: uvm_test_top.env.scb [SCOREBOARD] MATCH FOUND Expected Data: 11 ACTUAL Read Data: 11
# 	 Monitor winc = 1 	 wdata = e8 	 w_count=63
# 	 Scoreboard wrie data = e8
# 	 Monitor winc = 1 	 wdata = 12 	 w_count=64
# 	 Scoreboard wrie data = 12
# 	 Monitor rinc = 1 	 rdata = 64 	 	 rcount=19
# UVM_INFO async_scoreboard.sv(47) @ 600: uvm_test_top.env.scb [SCOREBOARD] MATCH FOUND Expected Data: 64 ACTUAL Read Data: 64
# 	 Monitor winc = 1 	 wdata = 72 	 w_count=65
# 	 Scoreboard wrie data = 72
# 	 Monitor winc = 1 	 wdata = 53 	 w_count=66
# 	 Scoreboard wrie data = 53
# 	 Monitor winc = 1 	 wdata = 75 	 w_count=67
# 	 Scoreboard wrie data = 75
# 	 Monitor rinc = 1 	 rdata = f0 	 	 rcount=20
# UVM_INFO async_scoreboard.sv(47) @ 620: uvm_test_top.env.scb [SCOREBOARD] MATCH FOUND Expected Data: f0 ACTUAL Read Data: f0
# 	 Monitor winc = 1 	 wdata = d3 	 w_count=68
# 	 Scoreboard wrie data = d3
# 	 Monitor winc = 1 	 wdata = 34 	 w_count=69
# 	 Scoreboard wrie data = 34
# 	 Monitor rinc = 1 	 rdata = d4 	 	 rcount=21
# UVM_INFO async_scoreboard.sv(47) @ 640: uvm_test_top.env.scb [SCOREBOARD] MATCH FOUND Expected Data: d4 ACTUAL Read Data: d4
# 	 Monitor winc = 1 	 wdata = 7f 	 w_count=70
# 	 Scoreboard wrie data = 7f
# 	 Monitor winc = 1 	 wdata = b2 	 w_count=71
# 	 Scoreboard wrie data = b2
# 	 Monitor winc = 1 	 wdata = 3f 	 w_count=72
# 	 Scoreboard wrie data = 3f
# 	 Monitor rinc = 1 	 rdata = ce 	 	 rcount=22
# UVM_INFO async_scoreboard.sv(47) @ 660: uvm_test_top.env.scb [SCOREBOARD] MATCH FOUND Expected Data: ce ACTUAL Read Data: ce
# 	 Monitor winc = 1 	 wdata = 4 	 w_count=73
# 	 Scoreboard wrie data = 4
# 	 Monitor winc = 1 	 wdata = c5 	 w_count=74
# 	 Scoreboard wrie data = c5
# 	 Monitor rinc = 1 	 rdata = c6 	 	 rcount=23
# UVM_INFO async_scoreboard.sv(47) @ 680: uvm_test_top.env.scb [SCOREBOARD] MATCH FOUND Expected Data: c6 ACTUAL Read Data: c6
# 	 Monitor winc = 1 	 wdata = 51 	 w_count=75
# 	 Scoreboard wrie data = 51
# 	 Monitor winc = 1 	 wdata = c3 	 w_count=76
# 	 Scoreboard wrie data = c3
# 	 Monitor winc = 1 	 wdata = 70 	 w_count=77
# 	 Scoreboard wrie data = 70
# 	 Monitor rinc = 1 	 rdata = a5 	 	 rcount=24
# UVM_INFO async_scoreboard.sv(47) @ 700: uvm_test_top.env.scb [SCOREBOARD] MATCH FOUND Expected Data: a5 ACTUAL Read Data: a5
# 	 Monitor winc = 1 	 wdata = fc 	 w_count=78
# 	 Scoreboard wrie data = fc
# 	 Monitor winc = 1 	 wdata = 47 	 w_count=79
# 	 Scoreboard wrie data = 47
# 	 Monitor rinc = 1 	 rdata = 2 	 	 rcount=25
# UVM_INFO async_scoreboard.sv(47) @ 720: uvm_test_top.env.scb [SCOREBOARD] MATCH FOUND Expected Data: 2 ACTUAL Read Data: 2
# 	 Monitor winc = 1 	 wdata = 3 	 w_count=80
# 	 Scoreboard wrie data = 3
# 	 Monitor winc = 1 	 wdata = 83 	 w_count=81
# 	 Scoreboard wrie data = 83
# 	 Monitor winc = 1 	 wdata = 4a 	 w_count=82
# 	 Scoreboard wrie data = 4a
# 	 Monitor rinc = 1 	 rdata = a6 	 	 rcount=26
# UVM_INFO async_scoreboard.sv(47) @ 740: uvm_test_top.env.scb [SCOREBOARD] MATCH FOUND Expected Data: a6 ACTUAL Read Data: a6
# 	 Monitor winc = 1 	 wdata = 21 	 w_count=83
# 	 Scoreboard wrie data = 21
# 	 Monitor winc = 1 	 wdata = b8 	 w_count=84
# 	 Scoreboard wrie data = b8
# 	 Monitor rinc = 1 	 rdata = b4 	 	 rcount=27
# UVM_INFO async_scoreboard.sv(47) @ 760: uvm_test_top.env.scb [SCOREBOARD] MATCH FOUND Expected Data: b4 ACTUAL Read Data: b4
# 	 Monitor winc = 1 	 wdata = 2a 	 w_count=85
# 	 Scoreboard wrie data = 2a
# 	 Monitor winc = 1 	 wdata = 49 	 w_count=86
# 	 Scoreboard wrie data = 49
# 	 Monitor winc = 1 	 wdata = 94 	 w_count=87
# 	 Scoreboard wrie data = 94
# 	 Monitor rinc = 1 	 rdata = c2 	 	 rcount=28
# UVM_INFO async_scoreboard.sv(47) @ 780: uvm_test_top.env.scb [SCOREBOARD] MATCH FOUND Expected Data: c2 ACTUAL Read Data: c2
# 	 Monitor winc = 1 	 wdata = 97 	 w_count=88
# 	 Scoreboard wrie data = 97
# 	 Monitor winc = 1 	 wdata = 58 	 w_count=89
# 	 Scoreboard wrie data = 58
# 	 Monitor rinc = 1 	 rdata = a 	 	 rcount=29
# UVM_INFO async_scoreboard.sv(47) @ 800: uvm_test_top.env.scb [SCOREBOARD] MATCH FOUND Expected Data: a ACTUAL Read Data: a
# 	 Monitor winc = 1 	 wdata = 2 	 w_count=90
# 	 Scoreboard wrie data = 2
# 	 Monitor winc = 1 	 wdata = fd 	 w_count=91
# 	 Scoreboard wrie data = fd
# 	 Monitor winc = 1 	 wdata = 88 	 w_count=92
# 	 Scoreboard wrie data = 88
# 	 Monitor rinc = 1 	 rdata = b0 	 	 rcount=30
# UVM_INFO async_scoreboard.sv(47) @ 820: uvm_test_top.env.scb [SCOREBOARD] MATCH FOUND Expected Data: b0 ACTUAL Read Data: b0
# 	 Monitor winc = 1 	 wdata = 7f 	 w_count=93
# 	 Scoreboard wrie data = 7f
# 	 Monitor winc = 1 	 wdata = 5f 	 w_count=94
# 	 Scoreboard wrie data = 5f
# 	 Monitor rinc = 1 	 rdata = e3 	 	 rcount=31
# UVM_INFO async_scoreboard.sv(47) @ 840: uvm_test_top.env.scb [SCOREBOARD] MATCH FOUND Expected Data: e3 ACTUAL Read Data: e3
# 	 Monitor winc = 1 	 wdata = c4 	 w_count=95
# 	 Scoreboard wrie data = c4
# 	 Monitor winc = 1 	 wdata = 57 	 w_count=96
# 	 Scoreboard wrie data = 57
# 	 Monitor winc = 1 	 wdata = db 	 w_count=97
# 	 Scoreboard wrie data = db
# 	 Monitor rinc = 1 	 rdata = 1b 	 	 rcount=32
# UVM_INFO async_scoreboard.sv(47) @ 860: uvm_test_top.env.scb [SCOREBOARD] MATCH FOUND Expected Data: 1b ACTUAL Read Data: 1b
# 	 Monitor winc = 1 	 wdata = 17 	 w_count=98
# 	 Scoreboard wrie data = 17
# 	 Monitor winc = 1 	 wdata = 2d 	 w_count=99
# 	 Scoreboard wrie data = 2d
# 	 Monitor rinc = 1 	 rdata = bc 	 	 rcount=33
# UVM_INFO async_scoreboard.sv(47) @ 880: uvm_test_top.env.scb [SCOREBOARD] MATCH FOUND Expected Data: bc ACTUAL Read Data: bc
# 	 Monitor winc = 1 	 wdata = e4 	 w_count=100
# 	 Scoreboard wrie data = e4
# 	 Monitor winc = 1 	 wdata = 5 	 w_count=101
# 	 Scoreboard wrie data = 5
# 	 Monitor winc = 1 	 wdata = ad 	 w_count=102
# 	 Scoreboard wrie data = ad
# 	 Monitor rinc = 1 	 rdata = c3 	 	 rcount=34
# UVM_INFO async_scoreboard.sv(47) @ 900: uvm_test_top.env.scb [SCOREBOARD] MATCH FOUND Expected Data: c3 ACTUAL Read Data: c3
# 	 Monitor winc = 1 	 wdata = 9b 	 w_count=103
# 	 Scoreboard wrie data = 9b
# 	 Monitor winc = 1 	 wdata = ef 	 w_count=104
# 	 Scoreboard wrie data = ef
# 	 Monitor rinc = 1 	 rdata = 58 	 	 rcount=35
# UVM_INFO async_scoreboard.sv(47) @ 920: uvm_test_top.env.scb [SCOREBOARD] MATCH FOUND Expected Data: 58 ACTUAL Read Data: 58
# 	 Monitor winc = 1 	 wdata = b2 	 w_count=105
# 	 Scoreboard wrie data = b2
# 	 Monitor winc = 1 	 wdata = 75 	 w_count=106
# 	 Scoreboard wrie data = 75
# 	 Monitor winc = 1 	 wdata = de 	 w_count=107
# 	 Scoreboard wrie data = de
# 	 Monitor rinc = 1 	 rdata = b9 	 	 rcount=36
# UVM_INFO async_scoreboard.sv(47) @ 940: uvm_test_top.env.scb [SCOREBOARD] MATCH FOUND Expected Data: b9 ACTUAL Read Data: b9
# 	 Monitor winc = 1 	 wdata = b9 	 w_count=108
# 	 Scoreboard wrie data = b9
# 	 Monitor winc = 1 	 wdata = a7 	 w_count=109
# 	 Scoreboard wrie data = a7
# 	 Monitor rinc = 1 	 rdata = ad 	 	 rcount=37
# UVM_INFO async_scoreboard.sv(47) @ 960: uvm_test_top.env.scb [SCOREBOARD] MATCH FOUND Expected Data: ad ACTUAL Read Data: ad
# 	 Monitor winc = 1 	 wdata = 8e 	 w_count=110
# 	 Scoreboard wrie data = 8e
# 	 Monitor winc = 1 	 wdata = fd 	 w_count=111
# 	 Scoreboard wrie data = fd
# 	 Monitor winc = 1 	 wdata = e2 	 w_count=112
# 	 Scoreboard wrie data = e2
# 	 Monitor rinc = 1 	 rdata = 61 	 	 rcount=38
# UVM_INFO async_scoreboard.sv(47) @ 980: uvm_test_top.env.scb [SCOREBOARD] MATCH FOUND Expected Data: 61 ACTUAL Read Data: 61
# 	 Monitor winc = 1 	 wdata = ff 	 w_count=113
# 	 Scoreboard wrie data = ff
# 	 Monitor winc = 1 	 wdata = d7 	 w_count=114
# 	 Scoreboard wrie data = d7
# 	 Monitor rinc = 1 	 rdata = 81 	 	 rcount=39
# UVM_INFO async_scoreboard.sv(47) @ 1000: uvm_test_top.env.scb [SCOREBOARD] MATCH FOUND Expected Data: 81 ACTUAL Read Data: 81
# 	 Monitor winc = 1 	 wdata = ed 	 w_count=115
# 	 Scoreboard wrie data = ed
# 	 Monitor winc = 1 	 wdata = ab 	 w_count=116
# 	 Scoreboard wrie data = ab
# 	 Monitor winc = 1 	 wdata = 5c 	 w_count=117
# 	 Scoreboard wrie data = 5c
# 	 Monitor rinc = 1 	 rdata = b4 	 	 rcount=40
# UVM_INFO async_scoreboard.sv(47) @ 1020: uvm_test_top.env.scb [SCOREBOARD] MATCH FOUND Expected Data: b4 ACTUAL Read Data: b4
# 	 Monitor winc = 1 	 wdata = 75 	 w_count=118
# 	 Scoreboard wrie data = 75
# 	 Monitor winc = 1 	 wdata = cc 	 w_count=119
# 	 Scoreboard wrie data = cc
# 	 Monitor rinc = 1 	 rdata = 5 	 	 rcount=41
# UVM_INFO async_scoreboard.sv(47) @ 1040: uvm_test_top.env.scb [SCOREBOARD] MATCH FOUND Expected Data: 5 ACTUAL Read Data: 5
# 	 Monitor winc = 1 	 wdata = 6b 	 w_count=120
# 	 Scoreboard wrie data = 6b
# 	 Monitor winc = 1 	 wdata = 2d 	 w_count=121
# 	 Scoreboard wrie data = 2d
# 	 Monitor winc = 1 	 wdata = 30 	 w_count=122
# 	 Scoreboard wrie data = 30
# 	 Monitor rinc = 1 	 rdata = 8c 	 	 rcount=42
